{
    "allow_system_table_mods": {
        "boot_val": "off",
        "category": "Developer Options",
        "context": "postmaster",
        "enumvals": null,
        "extra_desc": null,
        "max_val": null,
        "min_val": null,
        "name": "allow_system_table_mods",
        "short_desc": "Allows modifications of the structure of system tables.",
        "unit": null,
        "vartype": "bool"
    },
    "application_name": {
        "boot_val": "",
        "category": "Reporting and Logging / What to Log",
        "context": "user",
        "enumvals": null,
        "extra_desc": null,
        "max_val": null,
        "min_val": null,
        "name": "application_name",
        "short_desc": "Sets the application name to be reported in statistics and logs.",
        "unit": null,
        "vartype": "string"
    },
    "archive_command": {
        "boot_val": "",
        "category": "Write-Ahead Log / Archiving",
        "context": "sighup",
        "enumvals": null,
        "extra_desc": null,
        "max_val": null,
        "min_val": null,
        "name": "archive_command",
        "short_desc": "Sets the shell command that will be called to archive a WAL file.",
        "unit": null,
        "vartype": "string"
    },
    "archive_mode": {
        "boot_val": "off",
        "category": "Write-Ahead Log / Archiving",
        "context": "postmaster",
        "enumvals": null,
        "extra_desc": null,
        "max_val": null,
        "min_val": null,
        "name": "archive_mode",
        "short_desc": "Allows archiving of WAL files using archive_command.",
        "unit": null,
        "vartype": "bool"
    },
    "archive_timeout": {
        "boot_val": "0",
        "category": "Write-Ahead Log / Archiving",
        "context": "sighup",
        "enumvals": null,
        "extra_desc": null,
        "max_val": "1073741823",
        "min_val": "0",
        "name": "archive_timeout",
        "short_desc": "Forces a switch to the next xlog file if a new file has not been started within N seconds.",
        "unit": "s",
        "vartype": "integer"
    },
    "array_nulls": {
        "boot_val": "on",
        "category": "Version and Platform Compatibility / Previous PostgreSQL Versions",
        "context": "user",
        "enumvals": null,
        "extra_desc": "When turned on, unquoted NULL in an array input value means a null value; otherwise it is taken literally.",
        "max_val": null,
        "min_val": null,
        "name": "array_nulls",
        "short_desc": "Enable input of NULL elements in arrays.",
        "unit": null,
        "vartype": "bool"
    },
    "authentication_timeout": {
        "boot_val": "60",
        "category": "Connections and Authentication / Security and Authentication",
        "context": "sighup",
        "enumvals": null,
        "extra_desc": null,
        "max_val": "600",
        "min_val": "1",
        "name": "authentication_timeout",
        "short_desc": "Sets the maximum allowed time to complete client authentication.",
        "unit": "s",
        "vartype": "integer"
    },
    "autovacuum": {
        "boot_val": "on",
        "category": "Autovacuum",
        "context": "sighup",
        "enumvals": null,
        "extra_desc": null,
        "max_val": null,
        "min_val": null,
        "name": "autovacuum",
        "short_desc": "Starts the autovacuum subprocess.",
        "unit": null,
        "vartype": "bool"
    },
    "autovacuum_analyze_scale_factor": {
        "boot_val": "0.1",
        "category": "Autovacuum",
        "context": "sighup",
        "enumvals": null,
        "extra_desc": null,
        "max_val": "100",
        "min_val": "0",
        "name": "autovacuum_analyze_scale_factor",
        "short_desc": "Number of tuple inserts, updates or deletes prior to analyze as a fraction of reltuples.",
        "unit": null,
        "vartype": "real"
    },
    "autovacuum_analyze_threshold": {
        "boot_val": "50",
        "category": "Autovacuum",
        "context": "sighup",
        "enumvals": null,
        "extra_desc": null,
        "max_val": "2147483647",
        "min_val": "0",
        "name": "autovacuum_analyze_threshold",
        "short_desc": "Minimum number of tuple inserts, updates or deletes prior to analyze.",
        "unit": "",
        "vartype": "integer"
    },
    "autovacuum_freeze_max_age": {
        "boot_val": "200000000",
        "category": "Autovacuum",
        "context": "postmaster",
        "enumvals": null,
        "extra_desc": null,
        "max_val": "2000000000",
        "min_val": "100000000",
        "name": "autovacuum_freeze_max_age",
        "short_desc": "Age at which to autovacuum a table to prevent transaction ID wraparound.",
        "unit": "",
        "vartype": "integer"
    },
    "autovacuum_max_workers": {
        "boot_val": "3",
        "category": "Autovacuum",
        "context": "postmaster",
        "enumvals": null,
        "extra_desc": null,
        "max_val": "8388607",
        "min_val": "1",
        "name": "autovacuum_max_workers",
        "short_desc": "Sets the maximum number of simultaneously running autovacuum worker processes.",
        "unit": "",
        "vartype": "integer"
    },
    "autovacuum_naptime": {
        "boot_val": "60",
        "category": "Autovacuum",
        "context": "sighup",
        "enumvals": null,
        "extra_desc": null,
        "max_val": "2147483",
        "min_val": "1",
        "name": "autovacuum_naptime",
        "short_desc": "Time to sleep between autovacuum runs.",
        "unit": "s",
        "vartype": "integer"
    },
    "autovacuum_vacuum_cost_delay": {
        "boot_val": "20",
        "category": "Autovacuum",
        "context": "sighup",
        "enumvals": null,
        "extra_desc": null,
        "max_val": "100",
        "min_val": "-1",
        "name": "autovacuum_vacuum_cost_delay",
        "short_desc": "Vacuum cost delay in milliseconds, for autovacuum.",
        "unit": "ms",
        "vartype": "integer"
    },
    "autovacuum_vacuum_cost_limit": {
        "boot_val": "-1",
        "category": "Autovacuum",
        "context": "sighup",
        "enumvals": null,
        "extra_desc": null,
        "max_val": "10000",
        "min_val": "-1",
        "name": "autovacuum_vacuum_cost_limit",
        "short_desc": "Vacuum cost amount available before napping, for autovacuum.",
        "unit": "",
        "vartype": "integer"
    },
    "autovacuum_vacuum_scale_factor": {
        "boot_val": "0.2",
        "category": "Autovacuum",
        "context": "sighup",
        "enumvals": null,
        "extra_desc": null,
        "max_val": "100",
        "min_val": "0",
        "name": "autovacuum_vacuum_scale_factor",
        "short_desc": "Number of tuple updates or deletes prior to vacuum as a fraction of reltuples.",
        "unit": null,
        "vartype": "real"
    },
    "autovacuum_vacuum_threshold": {
        "boot_val": "50",
        "category": "Autovacuum",
        "context": "sighup",
        "enumvals": null,
        "extra_desc": null,
        "max_val": "2147483647",
        "min_val": "0",
        "name": "autovacuum_vacuum_threshold",
        "short_desc": "Minimum number of tuple updates or deletes prior to vacuum.",
        "unit": "",
        "vartype": "integer"
    },
    "backslash_quote": {
        "boot_val": "safe_encoding",
        "category": "Version and Platform Compatibility / Previous PostgreSQL Versions",
        "context": "user",
        "enumvals": [
            "safe_encoding",
            "on",
            "off"
        ],
        "extra_desc": null,
        "max_val": null,
        "min_val": null,
        "name": "backslash_quote",
        "short_desc": "Sets whether \"\\'\" is allowed in string literals.",
        "unit": null,
        "vartype": "enum"
    },
    "bgwriter_delay": {
        "boot_val": "200",
        "category": "Resource Usage / Background Writer",
        "context": "sighup",
        "enumvals": null,
        "extra_desc": null,
        "max_val": "10000",
        "min_val": "10",
        "name": "bgwriter_delay",
        "short_desc": "Background writer sleep time between rounds.",
        "unit": "ms",
        "vartype": "integer"
    },
    "bgwriter_lru_maxpages": {
        "boot_val": "100",
        "category": "Resource Usage / Background Writer",
        "context": "sighup",
        "enumvals": null,
        "extra_desc": null,
        "max_val": "1000",
        "min_val": "0",
        "name": "bgwriter_lru_maxpages",
        "short_desc": "Background writer maximum number of LRU pages to flush per round.",
        "unit": "",
        "vartype": "integer"
    },
    "bgwriter_lru_multiplier": {
        "boot_val": "2",
        "category": "Resource Usage / Background Writer",
        "context": "sighup",
        "enumvals": null,
        "extra_desc": null,
        "max_val": "10",
        "min_val": "0",
        "name": "bgwriter_lru_multiplier",
        "short_desc": "Multiple of the average buffer usage to free per round.",
        "unit": null,
        "vartype": "real"
    },
    "bonjour": {
        "boot_val": "off",
        "category": "Connections and Authentication / Connection Settings",
        "context": "postmaster",
        "enumvals": null,
        "extra_desc": null,
        "max_val": null,
        "min_val": null,
        "name": "bonjour",
        "short_desc": "Enables advertising the server via Bonjour.",
        "unit": null,
        "vartype": "bool"
    },
    "bonjour_name": {
        "boot_val": "",
        "category": "Connections and Authentication / Connection Settings",
        "context": "postmaster",
        "enumvals": null,
        "extra_desc": null,
        "max_val": null,
        "min_val": null,
        "name": "bonjour_name",
        "short_desc": "Sets the Bonjour service name.",
        "unit": null,
        "vartype": "string"
    },
    "bytea_output": {
        "boot_val": "hex",
        "category": "Client Connection Defaults / Statement Behavior",
        "context": "user",
        "enumvals": [
            "escape",
            "hex"
        ],
        "extra_desc": null,
        "max_val": null,
        "min_val": null,
        "name": "bytea_output",
        "short_desc": "Sets the output format for bytea.",
        "unit": null,
        "vartype": "enum"
    },
    "check_function_bodies": {
        "boot_val": "on",
        "category": "Client Connection Defaults / Statement Behavior",
        "context": "user",
        "enumvals": null,
        "extra_desc": null,
        "max_val": null,
        "min_val": null,
        "name": "check_function_bodies",
        "short_desc": "Check function bodies during CREATE FUNCTION.",
        "unit": null,
        "vartype": "bool"
    },
    "checkpoint_completion_target": {
        "boot_val": "0.5",
        "category": "Write-Ahead Log / Checkpoints",
        "context": "sighup",
        "enumvals": null,
        "extra_desc": null,
        "max_val": "1",
        "min_val": "0",
        "name": "checkpoint_completion_target",
        "short_desc": "Time spent flushing dirty buffers during checkpoint, as fraction of checkpoint interval.",
        "unit": null,
        "vartype": "real"
    },
    "checkpoint_segments": {
        "boot_val": "3",
        "category": "Write-Ahead Log / Checkpoints",
        "context": "sighup",
        "enumvals": null,
        "extra_desc": null,
        "max_val": "2147483647",
        "min_val": "1",
        "name": "checkpoint_segments",
        "short_desc": "Sets the maximum distance in log segments between automatic WAL checkpoints.",
        "unit": "",
        "vartype": "integer"
    },
    "checkpoint_timeout": {
        "boot_val": "300",
        "category": "Write-Ahead Log / Checkpoints",
        "context": "sighup",
        "enumvals": null,
        "extra_desc": null,
        "max_val": "3600",
        "min_val": "30",
        "name": "checkpoint_timeout",
        "short_desc": "Sets the maximum time between automatic WAL checkpoints.",
        "unit": "s",
        "vartype": "integer"
    },
    "checkpoint_warning": {
        "boot_val": "30",
        "category": "Write-Ahead Log / Checkpoints",
        "context": "sighup",
        "enumvals": null,
        "extra_desc": "Write a message to the server log if checkpoints caused by the filling of checkpoint segment files happens more frequently than this number of seconds. Zero turns off the warning.",
        "max_val": "2147483647",
        "min_val": "0",
        "name": "checkpoint_warning",
        "short_desc": "Enables warnings if checkpoint segments are filled more frequently than this.",
        "unit": "s",
        "vartype": "integer"
    },
    "client_encoding": {
        "boot_val": "SQL_ASCII",
        "category": "Client Connection Defaults / Locale and Formatting",
        "context": "user",
        "enumvals": null,
        "extra_desc": null,
        "max_val": null,
        "min_val": null,
        "name": "client_encoding",
        "short_desc": "Sets the client's character set encoding.",
        "unit": null,
        "vartype": "string"
    },
    "client_min_messages": {
        "boot_val": "notice",
        "category": "Reporting and Logging / When to Log",
        "context": "user",
        "enumvals": [
            "debug5",
            "debug4",
            "debug3",
            "debug2",
            "debug1",
            "log",
            "notice",
            "warning",
            "error"
        ],
        "extra_desc": "Each level includes all the levels that follow it. The later the level, the fewer messages are sent.",
        "max_val": null,
        "min_val": null,
        "name": "client_min_messages",
        "short_desc": "Sets the message levels that are sent to the client.",
        "unit": null,
        "vartype": "enum"
    },
    "commit_delay": {
        "boot_val": "0",
        "category": "Write-Ahead Log / Settings",
        "context": "user",
        "enumvals": null,
        "extra_desc": null,
        "max_val": "100000",
        "min_val": "0",
        "name": "commit_delay",
        "short_desc": "Sets the delay in microseconds between transaction commit and flushing WAL to disk.",
        "unit": "",
        "vartype": "integer"
    },
    "commit_siblings": {
        "boot_val": "5",
        "category": "Write-Ahead Log / Settings",
        "context": "user",
        "enumvals": null,
        "extra_desc": null,
        "max_val": "1000",
        "min_val": "0",
        "name": "commit_siblings",
        "short_desc": "Sets the minimum concurrent open transactions before performing commit_delay.",
        "unit": "",
        "vartype": "integer"
    },
    "config_file": {
        "boot_val": null,
        "category": "File Locations",
        "context": "postmaster",
        "enumvals": null,
        "extra_desc": null,
        "max_val": null,
        "min_val": null,
        "name": "config_file",
        "short_desc": "Sets the server's main configuration file.",
        "unit": null,
        "vartype": "string"
    },
    "constraint_exclusion": {
        "boot_val": "partition",
        "category": "Query Tuning / Other Planner Options",
        "context": "user",
        "enumvals": [
            "partition",
            "on",
            "off"
        ],
        "extra_desc": "Table scans will be skipped if their constraints guarantee that no rows match the query.",
        "max_val": null,
        "min_val": null,
        "name": "constraint_exclusion",
        "short_desc": "Enables the planner to use constraints to optimize queries.",
        "unit": null,
        "vartype": "enum"
    },
    "cpu_index_tuple_cost": {
        "boot_val": "0.005",
        "category": "Query Tuning / Planner Cost Constants",
        "context": "user",
        "enumvals": null,
        "extra_desc": null,
        "max_val": "1.79769e+308",
        "min_val": "0",
        "name": "cpu_index_tuple_cost",
        "short_desc": "Sets the planner's estimate of the cost of processing each index entry during an index scan.",
        "unit": null,
        "vartype": "real"
    },
    "cpu_operator_cost": {
        "boot_val": "0.0025",
        "category": "Query Tuning / Planner Cost Constants",
        "context": "user",
        "enumvals": null,
        "extra_desc": null,
        "max_val": "1.79769e+308",
        "min_val": "0",
        "name": "cpu_operator_cost",
        "short_desc": "Sets the planner's estimate of the cost of processing each operator or function call.",
        "unit": null,
        "vartype": "real"
    },
    "cpu_tuple_cost": {
        "boot_val": "0.01",
        "category": "Query Tuning / Planner Cost Constants",
        "context": "user",
        "enumvals": null,
        "extra_desc": null,
        "max_val": "1.79769e+308",
        "min_val": "0",
        "name": "cpu_tuple_cost",
        "short_desc": "Sets the planner's estimate of the cost of processing each tuple (row).",
        "unit": null,
        "vartype": "real"
    },
    "cursor_tuple_fraction": {
        "boot_val": "0.1",
        "category": "Query Tuning / Other Planner Options",
        "context": "user",
        "enumvals": null,
        "extra_desc": null,
        "max_val": "1",
        "min_val": "0",
        "name": "cursor_tuple_fraction",
        "short_desc": "Sets the planner's estimate of the fraction of a cursor's rows that will be retrieved.",
        "unit": null,
        "vartype": "real"
    },
    "custom_variable_classes": {
        "boot_val": null,
        "category": "Customized Options",
        "context": "sighup",
        "enumvals": null,
        "extra_desc": null,
        "max_val": null,
        "min_val": null,
        "name": "custom_variable_classes",
        "short_desc": "Sets the list of known custom variable classes.",
        "unit": null,
        "vartype": "string"
    },
    "data_directory": {
        "boot_val": null,
        "category": "File Locations",
        "context": "postmaster",
        "enumvals": null,
        "extra_desc": null,
        "max_val": null,
        "min_val": null,
        "name": "data_directory",
        "short_desc": "Sets the server's data directory.",
        "unit": null,
        "vartype": "string"
    },
    "datestyle": {
        "boot_val": "ISO, MDY",
        "category": "Client Connection Defaults / Locale and Formatting",
        "context": "user",
        "enumvals": null,
        "extra_desc": "Also controls interpretation of ambiguous date inputs.",
        "max_val": null,
        "min_val": null,
        "name": "DateStyle",
        "short_desc": "Sets the display format for date and time values.",
        "unit": null,
        "vartype": "string"
    },
    "db_user_namespace": {
        "boot_val": "off",
        "category": "Connections and Authentication / Security and Authentication",
        "context": "sighup",
        "enumvals": null,
        "extra_desc": null,
        "max_val": null,
        "min_val": null,
        "name": "db_user_namespace",
        "short_desc": "Enables per-database user names.",
        "unit": null,
        "vartype": "bool"
    },
    "deadlock_timeout": {
        "boot_val": "1000",
        "category": "Lock Management",
        "context": "sighup",
        "enumvals": null,
        "extra_desc": null,
        "max_val": "2147483647",
        "min_val": "1",
        "name": "deadlock_timeout",
        "short_desc": "Sets the time to wait on a lock before checking for deadlock.",
        "unit": "ms",
        "vartype": "integer"
    },
    "debug_assertions": {
        "boot_val": "off",
        "category": "Developer Options",
        "context": "user",
        "enumvals": null,
        "extra_desc": "This is a debugging aid.",
        "max_val": null,
        "min_val": null,
        "name": "debug_assertions",
        "short_desc": "Turns on various assertion checks.",
        "unit": null,
        "vartype": "bool"
    },
    "debug_pretty_print": {
        "boot_val": "on",
        "category": "Reporting and Logging / What to Log",
        "context": "user",
        "enumvals": null,
        "extra_desc": null,
        "max_val": null,
        "min_val": null,
        "name": "debug_pretty_print",
        "short_desc": "Indents parse and plan tree displays.",
        "unit": null,
        "vartype": "bool"
    },
    "debug_print_parse": {
        "boot_val": "off",
        "category": "Reporting and Logging / What to Log",
        "context": "user",
        "enumvals": null,
        "extra_desc": null,
        "max_val": null,
        "min_val": null,
        "name": "debug_print_parse",
        "short_desc": "Logs each query's parse tree.",
        "unit": null,
        "vartype": "bool"
    },
    "debug_print_plan": {
        "boot_val": "off",
        "category": "Reporting and Logging / What to Log",
        "context": "user",
        "enumvals": null,
        "extra_desc": null,
        "max_val": null,
        "min_val": null,
        "name": "debug_print_plan",
        "short_desc": "Logs each query's execution plan.",
        "unit": null,
        "vartype": "bool"
    },
    "debug_print_rewritten": {
        "boot_val": "off",
        "category": "Reporting and Logging / What to Log",
        "context": "user",
        "enumvals": null,
        "extra_desc": null,
        "max_val": null,
        "min_val": null,
        "name": "debug_print_rewritten",
        "short_desc": "Logs each query's rewritten parse tree.",
        "unit": null,
        "vartype": "bool"
    },
    "default_statistics_target": {
        "boot_val": "100",
        "category": "Query Tuning / Other Planner Options",
        "context": "user",
        "enumvals": null,
        "extra_desc": "This applies to table columns that have not had a column-specific target set via ALTER TABLE SET STATISTICS.",
        "max_val": "10000",
        "min_val": "1",
        "name": "default_statistics_target",
        "short_desc": "Sets the default statistics target.",
        "unit": "",
        "vartype": "integer"
    },
    "default_tablespace": {
        "boot_val": "",
        "category": "Client Connection Defaults / Statement Behavior",
        "context": "user",
        "enumvals": null,
        "extra_desc": "An empty string selects the database's default tablespace.",
        "max_val": null,
        "min_val": null,
        "name": "default_tablespace",
        "short_desc": "Sets the default tablespace to create tables and indexes in.",
        "unit": null,
        "vartype": "string"
    },
    "default_text_search_config": {
        "boot_val": "pg_catalog.simple",
        "category": "Client Connection Defaults / Locale and Formatting",
        "context": "user",
        "enumvals": null,
        "extra_desc": null,
        "max_val": null,
        "min_val": null,
        "name": "default_text_search_config",
        "short_desc": "Sets default text search configuration.",
        "unit": null,
        "vartype": "string"
    },
    "default_transaction_deferrable": {
        "boot_val": "off",
        "category": "Client Connection Defaults / Statement Behavior",
        "context": "user",
        "enumvals": null,
        "extra_desc": null,
        "max_val": null,
        "min_val": null,
        "name": "default_transaction_deferrable",
        "short_desc": "Sets the default deferrable status of new transactions.",
        "unit": null,
        "vartype": "bool"
    },
    "default_transaction_isolation": {
        "boot_val": "read committed",
        "category": "Client Connection Defaults / Statement Behavior",
        "context": "user",
        "enumvals": [
            "serializable",
            "repeatable read",
            "read committed",
            "read uncommitted"
        ],
        "extra_desc": null,
        "max_val": null,
        "min_val": null,
        "name": "default_transaction_isolation",
        "short_desc": "Sets the transaction isolation level of each new transaction.",
        "unit": null,
        "vartype": "enum"
    },
    "default_transaction_read_only": {
        "boot_val": "off",
        "category": "Client Connection Defaults / Statement Behavior",
        "context": "user",
        "enumvals": null,
        "extra_desc": null,
        "max_val": null,
        "min_val": null,
        "name": "default_transaction_read_only",
        "short_desc": "Sets the default read-only status of new transactions.",
        "unit": null,
        "vartype": "bool"
    },
    "default_with_oids": {
        "boot_val": "off",
        "category": "Version and Platform Compatibility / Previous PostgreSQL Versions",
        "context": "user",
        "enumvals": null,
        "extra_desc": null,
        "max_val": null,
        "min_val": null,
        "name": "default_with_oids",
        "short_desc": "Create new tables with OIDs by default.",
        "unit": null,
        "vartype": "bool"
    },
    "dynamic_library_path": {
        "boot_val": "$libdir",
        "category": "Client Connection Defaults / Other Defaults",
        "context": "superuser",
        "enumvals": null,
        "extra_desc": "If a dynamically loadable module needs to be opened and the specified name does not have a directory component (i.e., the name does not contain a slash), the system will search this path for the specified file.",
        "max_val": null,
        "min_val": null,
        "name": "dynamic_library_path",
        "short_desc": "Sets the path for dynamically loadable modules.",
        "unit": null,
        "vartype": "string"
    },
    "effective_cache_size": {
        "boot_val": "16384",
        "category": "Query Tuning / Planner Cost Constants",
        "context": "user",
        "enumvals": null,
        "extra_desc": "That is, the portion of the kernel's disk cache that will be used for PostgreSQL data files. This is measured in disk pages, which are normally 8 kB each.",
        "max_val": "2147483647",
        "min_val": "1",
        "name": "effective_cache_size",
        "short_desc": "Sets the planner's assumption about the size of the disk cache.",
        "unit": "8kB",
        "vartype": "integer"
    },
    "effective_io_concurrency": {
        "boot_val": "1",
        "category": "Resource Usage / Asynchronous Behavior",
        "context": "user",
        "enumvals": null,
        "extra_desc": "For RAID arrays, this should be approximately the number of drive spindles in the array.",
        "max_val": "1000",
        "min_val": "0",
        "name": "effective_io_concurrency",
        "short_desc": "Number of simultaneous requests that can be handled efficiently by the disk subsystem.",
        "unit": "",
        "vartype": "integer"
    },
    "enable_bitmapscan": {
        "boot_val": "on",
        "category": "Query Tuning / Planner Method Configuration",
        "context": "user",
        "enumvals": null,
        "extra_desc": null,
        "max_val": null,
        "min_val": null,
        "name": "enable_bitmapscan",
        "short_desc": "Enables the planner's use of bitmap-scan plans.",
        "unit": null,
        "vartype": "bool"
    },
    "enable_hashagg": {
        "boot_val": "on",
        "category": "Query Tuning / Planner Method Configuration",
        "context": "user",
        "enumvals": null,
        "extra_desc": null,
        "max_val": null,
        "min_val": null,
        "name": "enable_hashagg",
        "short_desc": "Enables the planner's use of hashed aggregation plans.",
        "unit": null,
        "vartype": "bool"
    },
    "enable_hashjoin": {
        "boot_val": "on",
        "category": "Query Tuning / Planner Method Configuration",
        "context": "user",
        "enumvals": null,
        "extra_desc": null,
        "max_val": null,
        "min_val": null,
        "name": "enable_hashjoin",
        "short_desc": "Enables the planner's use of hash join plans.",
        "unit": null,
        "vartype": "bool"
    },
    "enable_indexscan": {
        "boot_val": "on",
        "category": "Query Tuning / Planner Method Configuration",
        "context": "user",
        "enumvals": null,
        "extra_desc": null,
        "max_val": null,
        "min_val": null,
        "name": "enable_indexscan",
        "short_desc": "Enables the planner's use of index-scan plans.",
        "unit": null,
        "vartype": "bool"
    },
    "enable_material": {
        "boot_val": "on",
        "category": "Query Tuning / Planner Method Configuration",
        "context": "user",
        "enumvals": null,
        "extra_desc": null,
        "max_val": null,
        "min_val": null,
        "name": "enable_material",
        "short_desc": "Enables the planner's use of materialization.",
        "unit": null,
        "vartype": "bool"
    },
    "enable_mergejoin": {
        "boot_val": "on",
        "category": "Query Tuning / Planner Method Configuration",
        "context": "user",
        "enumvals": null,
        "extra_desc": null,
        "max_val": null,
        "min_val": null,
        "name": "enable_mergejoin",
        "short_desc": "Enables the planner's use of merge join plans.",
        "unit": null,
        "vartype": "bool"
    },
    "enable_nestloop": {
        "boot_val": "on",
        "category": "Query Tuning / Planner Method Configuration",
        "context": "user",
        "enumvals": null,
        "extra_desc": null,
        "max_val": null,
        "min_val": null,
        "name": "enable_nestloop",
        "short_desc": "Enables the planner's use of nested-loop join plans.",
        "unit": null,
        "vartype": "bool"
    },
    "enable_seqscan": {
        "boot_val": "on",
        "category": "Query Tuning / Planner Method Configuration",
        "context": "user",
        "enumvals": null,
        "extra_desc": null,
        "max_val": null,
        "min_val": null,
        "name": "enable_seqscan",
        "short_desc": "Enables the planner's use of sequential-scan plans.",
        "unit": null,
        "vartype": "bool"
    },
    "enable_sort": {
        "boot_val": "on",
        "category": "Query Tuning / Planner Method Configuration",
        "context": "user",
        "enumvals": null,
        "extra_desc": null,
        "max_val": null,
        "min_val": null,
        "name": "enable_sort",
        "short_desc": "Enables the planner's use of explicit sort steps.",
        "unit": null,
        "vartype": "bool"
    },
    "enable_tidscan": {
        "boot_val": "on",
        "category": "Query Tuning / Planner Method Configuration",
        "context": "user",
        "enumvals": null,
        "extra_desc": null,
        "max_val": null,
        "min_val": null,
        "name": "enable_tidscan",
        "short_desc": "Enables the planner's use of TID scan plans.",
        "unit": null,
        "vartype": "bool"
    },
    "escape_string_warning": {
        "boot_val": "on",
        "category": "Version and Platform Compatibility / Previous PostgreSQL Versions",
        "context": "user",
        "enumvals": null,
        "extra_desc": null,
        "max_val": null,
        "min_val": null,
        "name": "escape_string_warning",
        "short_desc": "Warn about backslash escapes in ordinary string literals.",
        "unit": null,
        "vartype": "bool"
    },
    "exit_on_error": {
        "boot_val": "off",
        "category": "Error Handling",
        "context": "user",
        "enumvals": null,
        "extra_desc": null,
        "max_val": null,
        "min_val": null,
        "name": "exit_on_error",
        "short_desc": "Terminate session on any error.",
        "unit": null,
        "vartype": "bool"
    },
    "external_pid_file": {
        "boot_val": null,
        "category": "File Locations",
        "context": "postmaster",
        "enumvals": null,
        "extra_desc": null,
        "max_val": null,
        "min_val": null,
        "name": "external_pid_file",
        "short_desc": "Writes the postmaster PID to the specified file.",
        "unit": null,
        "vartype": "string"
    },
    "extra_float_digits": {
        "boot_val": "0",
        "category": "Client Connection Defaults / Locale and Formatting",
        "context": "user",
        "enumvals": null,
        "extra_desc": "This affects real, double precision, and geometric data types. The parameter value is added to the standard number of digits (FLT_DIG or DBL_DIG as appropriate).",
        "max_val": "3",
        "min_val": "-15",
        "name": "extra_float_digits",
        "short_desc": "Sets the number of digits displayed for floating-point values.",
        "unit": "",
        "vartype": "integer"
    },
    "from_collapse_limit": {
        "boot_val": "8",
        "category": "Query Tuning / Other Planner Options",
        "context": "user",
        "enumvals": null,
        "extra_desc": "The planner will merge subqueries into upper queries if the resulting FROM list would have no more than this many items.",
        "max_val": "2147483647",
        "min_val": "1",
        "name": "from_collapse_limit",
        "short_desc": "Sets the FROM-list size beyond which subqueries are not collapsed.",
        "unit": "",
        "vartype": "integer"
    },
    "fsync": {
        "boot_val": "on",
        "category": "Write-Ahead Log / Settings",
        "context": "sighup",
        "enumvals": null,
        "extra_desc": "The server will use the fsync() system call in several places to make sure that updates are physically written to disk. This insures that a database cluster will recover to a consistent state after an operating system or hardware crash.",
        "max_val": null,
        "min_val": null,
        "name": "fsync",
        "short_desc": "Forces synchronization of updates to disk.",
        "unit": null,
        "vartype": "bool"
    },
    "full_page_writes": {
        "boot_val": "on",
        "category": "Write-Ahead Log / Settings",
        "context": "sighup",
        "enumvals": null,
        "extra_desc": "A page write in process during an operating system crash might be only partially written to disk.  During recovery, the row changes stored in WAL are not enough to recover.  This option writes pages when first modified after a checkpoint to WAL so full recovery is possible.",
        "max_val": null,
        "min_val": null,
        "name": "full_page_writes",
        "short_desc": "Writes full pages to WAL when first modified after a checkpoint.",
        "unit": null,
        "vartype": "bool"
    },
    "geqo": {
        "boot_val": "on",
        "category": "Query Tuning / Genetic Query Optimizer",
        "context": "user",
        "enumvals": null,
        "extra_desc": "This algorithm attempts to do planning without exhaustive searching.",
        "max_val": null,
        "min_val": null,
        "name": "geqo",
        "short_desc": "Enables genetic query optimization.",
        "unit": null,
        "vartype": "bool"
    },
    "geqo_effort": {
        "boot_val": "5",
        "category": "Query Tuning / Genetic Query Optimizer",
        "context": "user",
        "enumvals": null,
        "extra_desc": null,
        "max_val": "10",
        "min_val": "1",
        "name": "geqo_effort",
        "short_desc": "GEQO: effort is used to set the default for other GEQO parameters.",
        "unit": "",
        "vartype": "integer"
    },
    "geqo_generations": {
        "boot_val": "0",
        "category": "Query Tuning / Genetic Query Optimizer",
        "context": "user",
        "enumvals": null,
        "extra_desc": "Zero selects a suitable default value.",
        "max_val": "2147483647",
        "min_val": "0",
        "name": "geqo_generations",
        "short_desc": "GEQO: number of iterations of the algorithm.",
        "unit": "",
        "vartype": "integer"
    },
    "geqo_pool_size": {
        "boot_val": "0",
        "category": "Query Tuning / Genetic Query Optimizer",
        "context": "user",
        "enumvals": null,
        "extra_desc": "Zero selects a suitable default value.",
        "max_val": "2147483647",
        "min_val": "0",
        "name": "geqo_pool_size",
        "short_desc": "GEQO: number of individuals in the population.",
        "unit": "",
        "vartype": "integer"
    },
    "geqo_seed": {
        "boot_val": "0",
        "category": "Query Tuning / Genetic Query Optimizer",
        "context": "user",
        "enumvals": null,
        "extra_desc": null,
        "max_val": "1",
        "min_val": "0",
        "name": "geqo_seed",
        "short_desc": "GEQO: seed for random path selection.",
        "unit": null,
        "vartype": "real"
    },
    "geqo_selection_bias": {
        "boot_val": "2",
        "category": "Query Tuning / Genetic Query Optimizer",
        "context": "user",
        "enumvals": null,
        "extra_desc": null,
        "max_val": "2",
        "min_val": "1.5",
        "name": "geqo_selection_bias",
        "short_desc": "GEQO: selective pressure within the population.",
        "unit": null,
        "vartype": "real"
    },
    "geqo_threshold": {
        "boot_val": "12",
        "category": "Query Tuning / Genetic Query Optimizer",
        "context": "user",
        "enumvals": null,
        "extra_desc": null,
        "max_val": "2147483647",
        "min_val": "2",
        "name": "geqo_threshold",
        "short_desc": "Sets the threshold of FROM items beyond which GEQO is used.",
        "unit": "",
        "vartype": "integer"
    },
    "gin_fuzzy_search_limit": {
        "boot_val": "0",
        "category": "Client Connection Defaults / Other Defaults",
        "context": "user",
        "enumvals": null,
        "extra_desc": null,
        "max_val": "2147483647",
        "min_val": "0",
        "name": "gin_fuzzy_search_limit",
        "short_desc": "Sets the maximum allowed result for exact search by GIN.",
        "unit": "",
        "vartype": "integer"
    },
    "hba_file": {
        "boot_val": null,
        "category": "File Locations",
        "context": "postmaster",
        "enumvals": null,
        "extra_desc": null,
        "max_val": null,
        "min_val": null,
        "name": "hba_file",
        "short_desc": "Sets the server's \"hba\" configuration file.",
        "unit": null,
        "vartype": "string"
    },
    "hot_standby": {
        "boot_val": "off",
        "category": "Replication / Standby Servers",
        "context": "postmaster",
        "enumvals": null,
        "extra_desc": null,
        "max_val": null,
        "min_val": null,
        "name": "hot_standby",
        "short_desc": "Allows connections and queries during recovery.",
        "unit": null,
        "vartype": "bool"
    },
    "hot_standby_feedback": {
        "boot_val": "off",
        "category": "Replication / Standby Servers",
        "context": "sighup",
        "enumvals": null,
        "extra_desc": null,
        "max_val": null,
        "min_val": null,
        "name": "hot_standby_feedback",
        "short_desc": "Allows feedback from a hot standby to the primary that will avoid query conflicts.",
        "unit": null,
        "vartype": "bool"
    },
    "ident_file": {
        "boot_val": null,
        "category": "File Locations",
        "context": "postmaster",
        "enumvals": null,
        "extra_desc": null,
        "max_val": null,
        "min_val": null,
        "name": "ident_file",
        "short_desc": "Sets the server's \"ident\" configuration file.",
        "unit": null,
        "vartype": "string"
    },
    "ignore_system_indexes": {
        "boot_val": "off",
        "category": "Developer Options",
        "context": "backend",
        "enumvals": null,
        "extra_desc": "It does not prevent updating the indexes, so it is safe to use.  The worst consequence is slowness.",
        "max_val": null,
        "min_val": null,
        "name": "ignore_system_indexes",
        "short_desc": "Disables reading from system indexes.",
        "unit": null,
        "vartype": "bool"
    },
    "intervalstyle": {
        "boot_val": "postgres",
        "category": "Client Connection Defaults / Locale and Formatting",
        "context": "user",
        "enumvals": [
            "postgres",
            "postgres_verbose",
            "sql_standard",
            "iso_8601"
        ],
        "extra_desc": null,
        "max_val": null,
        "min_val": null,
        "name": "IntervalStyle",
        "short_desc": "Sets the display format for interval values.",
        "unit": null,
        "vartype": "enum"
    },
    "join_collapse_limit": {
        "boot_val": "8",
        "category": "Query Tuning / Other Planner Options",
        "context": "user",
        "enumvals": null,
        "extra_desc": "The planner will flatten explicit JOIN constructs into lists of FROM items whenever a list of no more than this many items would result.",
        "max_val": "2147483647",
        "min_val": "1",
        "name": "join_collapse_limit",
        "short_desc": "Sets the FROM-list size beyond which JOIN constructs are not flattened.",
        "unit": "",
        "vartype": "integer"
    },
    "krb_caseins_users": {
        "boot_val": "off",
        "category": "Connections and Authentication / Security and Authentication",
        "context": "sighup",
        "enumvals": null,
        "extra_desc": null,
        "max_val": null,
        "min_val": null,
        "name": "krb_caseins_users",
        "short_desc": "Sets whether Kerberos and GSSAPI user names should be treated as case-insensitive.",
        "unit": null,
        "vartype": "bool"
    },
    "krb_server_keyfile": {
        "boot_val": "FILE:/etc/postgresql-common/krb5.keytab",
        "category": "Connections and Authentication / Security and Authentication",
        "context": "sighup",
        "enumvals": null,
        "extra_desc": null,
        "max_val": null,
        "min_val": null,
        "name": "krb_server_keyfile",
        "short_desc": "Sets the location of the Kerberos server key file.",
        "unit": null,
        "vartype": "string"
    },
    "krb_srvname": {
        "boot_val": "postgres",
        "category": "Connections and Authentication / Security and Authentication",
        "context": "sighup",
        "enumvals": null,
        "extra_desc": null,
        "max_val": null,
        "min_val": null,
        "name": "krb_srvname",
        "short_desc": "Sets the name of the Kerberos service.",
        "unit": null,
        "vartype": "string"
    },
    "lc_messages": {
        "boot_val": "",
        "category": "Client Connection Defaults / Locale and Formatting",
        "context": "superuser",
        "enumvals": null,
        "extra_desc": null,
        "max_val": null,
        "min_val": null,
        "name": "lc_messages",
        "short_desc": "Sets the language in which messages are displayed.",
        "unit": null,
        "vartype": "string"
    },
    "lc_monetary": {
        "boot_val": "C",
        "category": "Client Connection Defaults / Locale and Formatting",
        "context": "user",
        "enumvals": null,
        "extra_desc": null,
        "max_val": null,
        "min_val": null,
        "name": "lc_monetary",
        "short_desc": "Sets the locale for formatting monetary amounts.",
        "unit": null,
        "vartype": "string"
    },
    "lc_numeric": {
        "boot_val": "C",
        "category": "Client Connection Defaults / Locale and Formatting",
        "context": "user",
        "enumvals": null,
        "extra_desc": null,
        "max_val": null,
        "min_val": null,
        "name": "lc_numeric",
        "short_desc": "Sets the locale for formatting numbers.",
        "unit": null,
        "vartype": "string"
    },
    "lc_time": {
        "boot_val": "C",
        "category": "Client Connection Defaults / Locale and Formatting",
        "context": "user",
        "enumvals": null,
        "extra_desc": null,
        "max_val": null,
        "min_val": null,
        "name": "lc_time",
        "short_desc": "Sets the locale for formatting date and time values.",
        "unit": null,
        "vartype": "string"
    },
    "listen_addresses": {
        "boot_val": "localhost",
        "category": "Connections and Authentication / Connection Settings",
        "context": "postmaster",
        "enumvals": null,
        "extra_desc": null,
        "max_val": null,
        "min_val": null,
        "name": "listen_addresses",
        "short_desc": "Sets the host name or IP address(es) to listen to.",
        "unit": null,
        "vartype": "string"
    },
    "lo_compat_privileges": {
        "boot_val": "off",
        "category": "Version and Platform Compatibility / Previous PostgreSQL Versions",
        "context": "superuser",
        "enumvals": null,
        "extra_desc": "Skips privilege checks when reading or modifying large objects, for compatibility with PostgreSQL releases prior to 9.0.",
        "max_val": null,
        "min_val": null,
        "name": "lo_compat_privileges",
        "short_desc": "Enables backward compatibility mode for privilege checks on large objects.",
        "unit": null,
        "vartype": "bool"
    },
    "local_preload_libraries": {
        "boot_val": "",
        "category": "Client Connection Defaults / Other Defaults",
        "context": "backend",
        "enumvals": null,
        "extra_desc": null,
        "max_val": null,
        "min_val": null,
        "name": "local_preload_libraries",
        "short_desc": "Lists shared libraries to preload into each backend.",
        "unit": null,
        "vartype": "string"
    },
    "log_autovacuum_min_duration": {
        "boot_val": "-1",
        "category": "Reporting and Logging / What to Log",
        "context": "sighup",
        "enumvals": null,
        "extra_desc": "Zero prints all actions. -1 turns autovacuum logging off.",
        "max_val": "2147483647",
        "min_val": "-1",
        "name": "log_autovacuum_min_duration",
        "short_desc": "Sets the minimum execution time above which autovacuum actions will be logged.",
        "unit": "ms",
        "vartype": "integer"
    },
    "log_checkpoints": {
        "boot_val": "off",
        "category": "Reporting and Logging / What to Log",
        "context": "sighup",
        "enumvals": null,
        "extra_desc": null,
        "max_val": null,
        "min_val": null,
        "name": "log_checkpoints",
        "short_desc": "Logs each checkpoint.",
        "unit": null,
        "vartype": "bool"
    },
    "log_connections": {
        "boot_val": "off",
        "category": "Reporting and Logging / What to Log",
        "context": "backend",
        "enumvals": null,
        "extra_desc": null,
        "max_val": null,
        "min_val": null,
        "name": "log_connections",
        "short_desc": "Logs each successful connection.",
        "unit": null,
        "vartype": "bool"
    },
    "log_destination": {
        "boot_val": "stderr",
        "category": "Reporting and Logging / Where to Log",
        "context": "sighup",
        "enumvals": null,
        "extra_desc": "Valid values are combinations of \"stderr\", \"syslog\", \"csvlog\", and \"eventlog\", depending on the platform.",
        "max_val": null,
        "min_val": null,
        "name": "log_destination",
        "short_desc": "Sets the destination for server log output.",
        "unit": null,
        "vartype": "string"
    },
    "log_directory": {
        "boot_val": "pg_log",
        "category": "Reporting and Logging / Where to Log",
        "context": "sighup",
        "enumvals": null,
        "extra_desc": "Can be specified as relative to the data directory or as absolute path.",
        "max_val": null,
        "min_val": null,
        "name": "log_directory",
        "short_desc": "Sets the destination directory for log files.",
        "unit": null,
        "vartype": "string"
    },
    "log_disconnections": {
        "boot_val": "off",
        "category": "Reporting and Logging / What to Log",
        "context": "backend",
        "enumvals": null,
        "extra_desc": null,
        "max_val": null,
        "min_val": null,
        "name": "log_disconnections",
        "short_desc": "Logs end of a session, including duration.",
        "unit": null,
        "vartype": "bool"
    },
    "log_duration": {
        "boot_val": "off",
        "category": "Reporting and Logging / What to Log",
        "context": "superuser",
        "enumvals": null,
        "extra_desc": null,
        "max_val": null,
        "min_val": null,
        "name": "log_duration",
        "short_desc": "Logs the duration of each completed SQL statement.",
        "unit": null,
        "vartype": "bool"
    },
    "log_error_verbosity": {
        "boot_val": "default",
        "category": "Reporting and Logging / What to Log",
        "context": "superuser",
        "enumvals": [
            "terse",
            "default",
            "verbose"
        ],
        "extra_desc": null,
        "max_val": null,
        "min_val": null,
        "name": "log_error_verbosity",
        "short_desc": "Sets the verbosity of logged messages.",
        "unit": null,
        "vartype": "enum"
    },
    "log_executor_stats": {
        "boot_val": "off",
        "category": "Statistics / Monitoring",
        "context": "superuser",
        "enumvals": null,
        "extra_desc": null,
        "max_val": null,
        "min_val": null,
        "name": "log_executor_stats",
        "short_desc": "Writes executor performance statistics to the server log.",
        "unit": null,
        "vartype": "bool"
    },
    "log_file_mode": {
        "boot_val": "384",
        "category": "Reporting and Logging / Where to Log",
        "context": "sighup",
        "enumvals": null,
        "extra_desc": "The parameter value is expected to be a numeric mode specification in the form accepted by the chmod and umask system calls. (To use the customary octal format the number must start with a 0 (zero).)",
        "max_val": "511",
        "min_val": "0",
        "name": "log_file_mode",
        "short_desc": "Sets the file permissions for log files.",
        "unit": "",
        "vartype": "integer"
    },
    "log_filename": {
        "boot_val": "postgresql-%Y-%m-%d_%H%M%S.log",
        "category": "Reporting and Logging / Where to Log",
        "context": "sighup",
        "enumvals": null,
        "extra_desc": null,
        "max_val": null,
        "min_val": null,
        "name": "log_filename",
        "short_desc": "Sets the file name pattern for log files.",
        "unit": null,
        "vartype": "string"
    },
    "log_hostname": {
        "boot_val": "off",
        "category": "Reporting and Logging / What to Log",
        "context": "sighup",
        "enumvals": null,
        "extra_desc": "By default, connection logs only show the IP address of the connecting host. If you want them to show the host name you can turn this on, but depending on your host name resolution setup it might impose a non-negligible performance penalty.",
        "max_val": null,
        "min_val": null,
        "name": "log_hostname",
        "short_desc": "Logs the host name in the connection logs.",
        "unit": null,
        "vartype": "bool"
    },
    "log_line_prefix": {
        "boot_val": "",
        "category": "Reporting and Logging / What to Log",
        "context": "sighup",
        "enumvals": null,
        "extra_desc": "If blank, no prefix is used.",
        "max_val": null,
        "min_val": null,
        "name": "log_line_prefix",
        "short_desc": "Controls information prefixed to each log line.",
        "unit": null,
        "vartype": "string"
    },
    "log_lock_waits": {
        "boot_val": "off",
        "category": "Reporting and Logging / What to Log",
        "context": "superuser",
        "enumvals": null,
        "extra_desc": null,
        "max_val": null,
        "min_val": null,
        "name": "log_lock_waits",
        "short_desc": "Logs long lock waits.",
        "unit": null,
        "vartype": "bool"
    },
    "log_min_duration_statement": {
        "boot_val": "-1",
        "category": "Reporting and Logging / When to Log",
        "context": "superuser",
        "enumvals": null,
        "extra_desc": "Zero prints all queries. -1 turns this feature off.",
        "max_val": "2147483647",
        "min_val": "-1",
        "name": "log_min_duration_statement",
        "short_desc": "Sets the minimum execution time above which statements will be logged.",
        "unit": "ms",
        "vartype": "integer"
    },
    "log_min_error_statement": {
        "boot_val": "error",
        "category": "Reporting and Logging / When to Log",
        "context": "superuser",
        "enumvals": [
            "debug5",
            "debug4",
            "debug3",
            "debug2",
            "debug1",
            "info",
            "notice",
            "warning",
            "error",
            "log",
            "fatal",
            "panic"
        ],
        "extra_desc": "Each level includes all the levels that follow it. The later the level, the fewer messages are sent.",
        "max_val": null,
        "min_val": null,
        "name": "log_min_error_statement",
        "short_desc": "Causes all statements generating error at or above this level to be logged.",
        "unit": null,
        "vartype": "enum"
    },
    "log_min_messages": {
        "boot_val": "warning",
        "category": "Reporting and Logging / When to Log",
        "context": "superuser",
        "enumvals": [
            "debug5",
            "debug4",
            "debug3",
            "debug2",
            "debug1",
            "info",
            "notice",
            "warning",
            "error",
            "log",
            "fatal",
            "panic"
        ],
        "extra_desc": "Each level includes all the levels that follow it. The later the level, the fewer messages are sent.",
        "max_val": null,
        "min_val": null,
        "name": "log_min_messages",
        "short_desc": "Sets the message levels that are logged.",
        "unit": null,
        "vartype": "enum"
    },
    "log_parser_stats": {
        "boot_val": "off",
        "category": "Statistics / Monitoring",
        "context": "superuser",
        "enumvals": null,
        "extra_desc": null,
        "max_val": null,
        "min_val": null,
        "name": "log_parser_stats",
        "short_desc": "Writes parser performance statistics to the server log.",
        "unit": null,
        "vartype": "bool"
    },
    "log_planner_stats": {
        "boot_val": "off",
        "category": "Statistics / Monitoring",
        "context": "superuser",
        "enumvals": null,
        "extra_desc": null,
        "max_val": null,
        "min_val": null,
        "name": "log_planner_stats",
        "short_desc": "Writes planner performance statistics to the server log.",
        "unit": null,
        "vartype": "bool"
    },
    "log_rotation_age": {
        "boot_val": "1440",
        "category": "Reporting and Logging / Where to Log",
        "context": "sighup",
        "enumvals": null,
        "extra_desc": null,
        "max_val": "35791394",
        "min_val": "0",
        "name": "log_rotation_age",
        "short_desc": "Automatic log file rotation will occur after N minutes.",
        "unit": "min",
        "vartype": "integer"
    },
    "log_rotation_size": {
        "boot_val": "10240",
        "category": "Reporting and Logging / Where to Log",
        "context": "sighup",
        "enumvals": null,
        "extra_desc": null,
        "max_val": "2097151",
        "min_val": "0",
        "name": "log_rotation_size",
        "short_desc": "Automatic log file rotation will occur after N kilobytes.",
        "unit": "kB",
        "vartype": "integer"
    },
    "log_statement": {
        "boot_val": "none",
        "category": "Reporting and Logging / What to Log",
        "context": "superuser",
        "enumvals": [
            "none",
            "ddl",
            "mod",
            "all"
        ],
        "extra_desc": null,
        "max_val": null,
        "min_val": null,
        "name": "log_statement",
        "short_desc": "Sets the type of statements logged.",
        "unit": null,
        "vartype": "enum"
    },
    "log_statement_stats": {
        "boot_val": "off",
        "category": "Statistics / Monitoring",
        "context": "superuser",
        "enumvals": null,
        "extra_desc": null,
        "max_val": null,
        "min_val": null,
        "name": "log_statement_stats",
        "short_desc": "Writes cumulative performance statistics to the server log.",
        "unit": null,
        "vartype": "bool"
    },
    "log_temp_files": {
        "boot_val": "-1",
        "category": "Reporting and Logging / What to Log",
        "context": "superuser",
        "enumvals": null,
        "extra_desc": "Zero logs all files. The default is -1 (turning this feature off).",
        "max_val": "2147483647",
        "min_val": "-1",
        "name": "log_temp_files",
        "short_desc": "Log the use of temporary files larger than this number of kilobytes.",
        "unit": "kB",
        "vartype": "integer"
    },
    "log_timezone": {
        "boot_val": null,
        "category": "Reporting and Logging / What to Log",
        "context": "sighup",
        "enumvals": null,
        "extra_desc": null,
        "max_val": null,
        "min_val": null,
        "name": "log_timezone",
        "short_desc": "Sets the time zone to use in log messages.",
        "unit": null,
        "vartype": "string"
    },
    "log_truncate_on_rotation": {
        "boot_val": "off",
        "category": "Reporting and Logging / Where to Log",
        "context": "sighup",
        "enumvals": null,
        "extra_desc": null,
        "max_val": null,
        "min_val": null,
        "name": "log_truncate_on_rotation",
        "short_desc": "Truncate existing log files of same name during log rotation.",
        "unit": null,
        "vartype": "bool"
    },
    "logging_collector": {
        "boot_val": "off",
        "category": "Reporting and Logging / Where to Log",
        "context": "postmaster",
        "enumvals": null,
        "extra_desc": null,
        "max_val": null,
        "min_val": null,
        "name": "logging_collector",
        "short_desc": "Start a subprocess to capture stderr output and/or csvlogs into log files.",
        "unit": null,
        "vartype": "bool"
    },
    "maintenance_work_mem": {
        "boot_val": "16384",
        "category": "Resource Usage / Memory",
        "context": "user",
        "enumvals": null,
        "extra_desc": "This includes operations such as VACUUM and CREATE INDEX.",
        "max_val": "2147483647",
        "min_val": "1024",
        "name": "maintenance_work_mem",
        "short_desc": "Sets the maximum memory to be used for maintenance operations.",
        "unit": "kB",
        "vartype": "integer"
    },
    "max_connections": {
        "boot_val": "100",
        "category": "Connections and Authentication / Connection Settings",
        "context": "postmaster",
        "enumvals": null,
        "extra_desc": null,
        "max_val": "8388607",
        "min_val": "1",
        "name": "max_connections",
        "short_desc": "Sets the maximum number of concurrent connections.",
        "unit": "",
        "vartype": "integer"
    },
    "max_files_per_process": {
        "boot_val": "1000",
        "category": "Resource Usage / Kernel Resources",
        "context": "postmaster",
        "enumvals": null,
        "extra_desc": null,
        "max_val": "2147483647",
        "min_val": "25",
        "name": "max_files_per_process",
        "short_desc": "Sets the maximum number of simultaneously open files for each server process.",
        "unit": "",
        "vartype": "integer"
    },
    "max_locks_per_transaction": {
        "boot_val": "64",
        "category": "Lock Management",
        "context": "postmaster",
        "enumvals": null,
        "extra_desc": "The shared lock table is sized on the assumption that at most max_locks_per_transaction * max_connections distinct objects will need to be locked at any one time.",
        "max_val": "2147483647",
        "min_val": "10",
        "name": "max_locks_per_transaction",
        "short_desc": "Sets the maximum number of locks per transaction.",
        "unit": "",
        "vartype": "integer"
    },
    "max_pred_locks_per_transaction": {
        "boot_val": "64",
        "category": "Lock Management",
        "context": "postmaster",
        "enumvals": null,
        "extra_desc": "The shared predicate lock table is sized on the assumption that at most max_pred_locks_per_transaction * max_connections distinct objects will need to be locked at any one time.",
        "max_val": "2147483647",
        "min_val": "10",
        "name": "max_pred_locks_per_transaction",
        "short_desc": "Sets the maximum number of predicate locks per transaction.",
        "unit": "",
        "vartype": "integer"
    },
    "max_prepared_transactions": {
        "boot_val": "0",
        "category": "Resource Usage / Memory",
        "context": "postmaster",
        "enumvals": null,
        "extra_desc": null,
        "max_val": "8388607",
        "min_val": "0",
        "name": "max_prepared_transactions",
        "short_desc": "Sets the maximum number of simultaneously prepared transactions.",
        "unit": "",
        "vartype": "integer"
    },
    "max_stack_depth": {
        "boot_val": "100",
        "category": "Resource Usage / Memory",
        "context": "superuser",
        "enumvals": null,
        "extra_desc": null,
        "max_val": "2147483647",
        "min_val": "100",
        "name": "max_stack_depth",
        "short_desc": "Sets the maximum stack depth, in kilobytes.",
        "unit": "kB",
        "vartype": "integer"
    },
    "max_standby_archive_delay": {
        "boot_val": "30000",
        "category": "Replication / Standby Servers",
        "context": "sighup",
        "enumvals": null,
        "extra_desc": null,
        "max_val": "2147483647",
        "min_val": "-1",
        "name": "max_standby_archive_delay",
        "short_desc": "Sets the maximum delay before canceling queries when a hot standby server is processing archived WAL data.",
        "unit": "ms",
        "vartype": "integer"
    },
    "max_standby_streaming_delay": {
        "boot_val": "30000",
        "category": "Replication / Standby Servers",
        "context": "sighup",
        "enumvals": null,
        "extra_desc": null,
        "max_val": "2147483647",
        "min_val": "-1",
        "name": "max_standby_streaming_delay",
        "short_desc": "Sets the maximum delay before canceling queries when a hot standby server is processing streamed WAL data.",
        "unit": "ms",
        "vartype": "integer"
    },
    "max_wal_senders": {
        "boot_val": "0",
        "category": "Replication / Master Server",
        "context": "postmaster",
        "enumvals": null,
        "extra_desc": null,
        "max_val": "8388607",
        "min_val": "0",
        "name": "max_wal_senders",
        "short_desc": "Sets the maximum number of simultaneously running WAL sender processes.",
        "unit": "",
        "vartype": "integer"
    },
    "password_encryption": {
        "boot_val": "on",
        "category": "Connections and Authentication / Security and Authentication",
        "context": "user",
        "enumvals": null,
        "extra_desc": "When a password is specified in CREATE USER or ALTER USER without writing either ENCRYPTED or UNENCRYPTED, this parameter determines whether the password is to be encrypted.",
        "max_val": null,
        "min_val": null,
        "name": "password_encryption",
        "short_desc": "Encrypt passwords.",
        "unit": null,
        "vartype": "bool"
    },
    "port": {
        "boot_val": "5432",
        "category": "Connections and Authentication / Connection Settings",
        "context": "postmaster",
        "enumvals": null,
        "extra_desc": null,
        "max_val": "65535",
        "min_val": "1",
        "name": "port",
        "short_desc": "Sets the TCP port the server listens on.",
        "unit": "",
        "vartype": "integer"
    },
    "post_auth_delay": {
        "boot_val": "0",
        "category": "Developer Options",
        "context": "backend",
        "enumvals": null,
        "extra_desc": "This allows attaching a debugger to the process.",
        "max_val": "2147",
        "min_val": "0",
        "name": "post_auth_delay",
        "short_desc": "Waits N seconds on connection startup after authentication.",
        "unit": "s",
        "vartype": "integer"
    },
    "pre_auth_delay": {
        "boot_val": "0",
        "category": "Developer Options",
        "context": "sighup",
        "enumvals": null,
        "extra_desc": "This allows attaching a debugger to the process.",
        "max_val": "60",
        "min_val": "0",
        "name": "pre_auth_delay",
        "short_desc": "Waits N seconds on connection startup before authentication.",
        "unit": "s",
        "vartype": "integer"
    },
    "quote_all_identifiers": {
        "boot_val": "off",
        "category": "Version and Platform Compatibility / Previous PostgreSQL Versions",
        "context": "user",
        "enumvals": null,
        "extra_desc": null,
        "max_val": null,
        "min_val": null,
        "name": "quote_all_identifiers",
        "short_desc": "When generating SQL fragments, quote all identifiers.",
        "unit": null,
        "vartype": "bool"
    },
    "random_page_cost": {
        "boot_val": "4",
        "category": "Query Tuning / Planner Cost Constants",
        "context": "user",
        "enumvals": null,
        "extra_desc": null,
        "max_val": "1.79769e+308",
        "min_val": "0",
        "name": "random_page_cost",
        "short_desc": "Sets the planner's estimate of the cost of a nonsequentially fetched disk page.",
        "unit": null,
        "vartype": "real"
    },
    "replication_timeout": {
        "boot_val": "60000",
        "category": "Replication / Master Server",
        "context": "sighup",
        "enumvals": null,
        "extra_desc": null,
        "max_val": "2147483647",
        "min_val": "0",
        "name": "replication_timeout",
        "short_desc": "Sets the maximum time to wait for WAL replication.",
        "unit": "ms",
        "vartype": "integer"
    },
    "restart_after_crash": {
        "boot_val": "on",
        "category": "Error Handling",
        "context": "sighup",
        "enumvals": null,
        "extra_desc": null,
        "max_val": null,
        "min_val": null,
        "name": "restart_after_crash",
        "short_desc": "Reinitialize server after backend crash.",
        "unit": null,
        "vartype": "bool"
    },
    "search_path": {
        "boot_val": "\"$user\",public",
        "category": "Client Connection Defaults / Statement Behavior",
        "context": "user",
        "enumvals": null,
        "extra_desc": null,
        "max_val": null,
        "min_val": null,
        "name": "search_path",
        "short_desc": "Sets the schema search order for names that are not schema-qualified.",
        "unit": null,
        "vartype": "string"
    },
    "seq_page_cost": {
        "boot_val": "1",
        "category": "Query Tuning / Planner Cost Constants",
        "context": "user",
        "enumvals": null,
        "extra_desc": null,
        "max_val": "1.79769e+308",
        "min_val": "0",
        "name": "seq_page_cost",
        "short_desc": "Sets the planner's estimate of the cost of a sequentially fetched disk page.",
        "unit": null,
        "vartype": "real"
    },
    "session_replication_role": {
        "boot_val": "origin",
        "category": "Client Connection Defaults / Statement Behavior",
        "context": "superuser",
        "enumvals": [
            "origin",
            "replica",
            "local"
        ],
        "extra_desc": null,
        "max_val": null,
        "min_val": null,
        "name": "session_replication_role",
        "short_desc": "Sets the session's behavior for triggers and rewrite rules.",
        "unit": null,
        "vartype": "enum"
    },
    "shared_buffers": {
        "boot_val": "1024",
        "category": "Resource Usage / Memory",
        "context": "postmaster",
        "enumvals": null,
        "extra_desc": null,
        "max_val": "1073741823",
        "min_val": "16",
        "name": "shared_buffers",
        "short_desc": "Sets the number of shared memory buffers used by the server.",
        "unit": "8kB",
        "vartype": "integer"
    },
    "shared_preload_libraries": {
        "boot_val": "",
        "category": "Resource Usage / Kernel Resources",
        "context": "postmaster",
        "enumvals": null,
        "extra_desc": null,
        "max_val": null,
        "min_val": null,
        "name": "shared_preload_libraries",
        "short_desc": "Lists shared libraries to preload into server.",
        "unit": null,
        "vartype": "string"
    },
    "silent_mode": {
        "boot_val": "off",
        "category": "Reporting and Logging / Where to Log",
        "context": "postmaster",
        "enumvals": null,
        "extra_desc": "If this parameter is set, the server will automatically run in the background and any controlling terminals are dissociated.",
        "max_val": null,
        "min_val": null,
        "name": "silent_mode",
        "short_desc": "Runs the server silently.",
        "unit": null,
        "vartype": "bool"
    },
    "sql_inheritance": {
        "boot_val": "on",
        "category": "Version and Platform Compatibility / Previous PostgreSQL Versions",
        "context": "user",
        "enumvals": null,
        "extra_desc": null,
        "max_val": null,
        "min_val": null,
        "name": "sql_inheritance",
        "short_desc": "Causes subtables to be included by default in various commands.",
        "unit": null,
        "vartype": "bool"
    },
    "ssl": {
        "boot_val": "off",
        "category": "Connections and Authentication / Security and Authentication",
        "context": "postmaster",
        "enumvals": null,
        "extra_desc": null,
        "max_val": null,
        "min_val": null,
        "name": "ssl",
        "short_desc": "Enables SSL connections.",
        "unit": null,
        "vartype": "bool"
    },
    "ssl_ciphers": {
        "boot_val": "ALL:!ADH:!LOW:!EXP:!MD5:@STRENGTH",
        "category": "Connections and Authentication / Security and Authentication",
        "context": "postmaster",
        "enumvals": null,
        "extra_desc": null,
        "max_val": null,
        "min_val": null,
        "name": "ssl_ciphers",
        "short_desc": "Sets the list of allowed SSL ciphers.",
        "unit": null,
        "vartype": "string"
    },
    "ssl_renegotiation_limit": {
        "boot_val": "524288",
        "category": "Connections and Authentication / Security and Authentication",
        "context": "user",
        "enumvals": null,
        "extra_desc": null,
        "max_val": "2147483647",
        "min_val": "0",
        "name": "ssl_renegotiation_limit",
        "short_desc": "Set the amount of traffic to send and receive before renegotiating the encryption keys.",
        "unit": "kB",
        "vartype": "integer"
    },
    "standard_conforming_strings": {
        "boot_val": "on",
        "category": "Version and Platform Compatibility / Previous PostgreSQL Versions",
        "context": "user",
        "enumvals": null,
        "extra_desc": null,
        "max_val": null,
        "min_val": null,
        "name": "standard_conforming_strings",
        "short_desc": "Causes '...' strings to treat backslashes literally.",
        "unit": null,
        "vartype": "bool"
    },
    "statement_timeout": {
        "boot_val": "0",
        "category": "Client Connection Defaults / Statement Behavior",
        "context": "user",
        "enumvals": null,
        "extra_desc": "A value of 0 turns off the timeout.",
        "max_val": "2147483647",
        "min_val": "0",
        "name": "statement_timeout",
        "short_desc": "Sets the maximum allowed duration of any statement.",
        "unit": "ms",
        "vartype": "integer"
    },
    "stats_temp_directory": {
        "boot_val": "pg_stat_tmp",
        "category": "Statistics / Query and Index Statistics Collector",
        "context": "sighup",
        "enumvals": null,
        "extra_desc": null,
        "max_val": null,
        "min_val": null,
        "name": "stats_temp_directory",
        "short_desc": "Writes temporary statistics files to the specified directory.",
        "unit": null,
        "vartype": "string"
    },
    "superuser_reserved_connections": {
        "boot_val": "3",
        "category": "Connections and Authentication / Connection Settings",
        "context": "postmaster",
        "enumvals": null,
        "extra_desc": null,
        "max_val": "8388607",
        "min_val": "0",
        "name": "superuser_reserved_connections",
        "short_desc": "Sets the number of connection slots reserved for superusers.",
        "unit": "",
        "vartype": "integer"
    },
    "synchronize_seqscans": {
        "boot_val": "on",
        "category": "Version and Platform Compatibility / Previous PostgreSQL Versions",
        "context": "user",
        "enumvals": null,
        "extra_desc": null,
        "max_val": null,
        "min_val": null,
        "name": "synchronize_seqscans",
        "short_desc": "Enable synchronized sequential scans.",
        "unit": null,
        "vartype": "bool"
    },
    "synchronous_commit": {
        "boot_val": "on",
        "category": "Write-Ahead Log / Settings",
        "context": "user",
        "enumvals": [
            "local",
            "on",
            "off"
        ],
        "extra_desc": null,
        "max_val": null,
        "min_val": null,
        "name": "synchronous_commit",
        "short_desc": "Sets the current transaction's synchronization level.",
        "unit": null,
        "vartype": "enum"
    },
    "synchronous_standby_names": {
        "boot_val": "",
        "category": "Replication / Master Server",
        "context": "sighup",
        "enumvals": null,
        "extra_desc": null,
        "max_val": null,
        "min_val": null,
        "name": "synchronous_standby_names",
        "short_desc": "List of names of potential synchronous standbys.",
        "unit": null,
        "vartype": "string"
    },
    "syslog_facility": {
        "boot_val": "local0",
        "category": "Reporting and Logging / Where to Log",
        "context": "sighup",
        "enumvals": [
            "local0",
            "local1",
            "local2",
            "local3",
            "local4",
            "local5",
            "local6",
            "local7"
        ],
        "extra_desc": null,
        "max_val": null,
        "min_val": null,
        "name": "syslog_facility",
        "short_desc": "Sets the syslog \"facility\" to be used when syslog enabled.",
        "unit": null,
        "vartype": "enum"
    },
    "syslog_ident": {
        "boot_val": "postgres",
        "category": "Reporting and Logging / Where to Log",
        "context": "sighup",
        "enumvals": null,
        "extra_desc": null,
        "max_val": null,
        "min_val": null,
        "name": "syslog_ident",
        "short_desc": "Sets the program name used to identify PostgreSQL messages in syslog.",
        "unit": null,
        "vartype": "string"
    },
    "tcp_keepalives_count": {
        "boot_val": "0",
        "category": "Client Connection Defaults / Other Defaults",
        "context": "user",
        "enumvals": null,
        "extra_desc": "This controls the number of consecutive keepalive retransmits that can be lost before a connection is considered dead. A value of 0 uses the system default.",
        "max_val": "2147483647",
        "min_val": "0",
        "name": "tcp_keepalives_count",
        "short_desc": "Maximum number of TCP keepalive retransmits.",
        "unit": "",
        "vartype": "integer"
    },
    "tcp_keepalives_idle": {
        "boot_val": "0",
        "category": "Client Connection Defaults / Other Defaults",
        "context": "user",
        "enumvals": null,
        "extra_desc": "A value of 0 uses the system default.",
        "max_val": "2147483647",
        "min_val": "0",
        "name": "tcp_keepalives_idle",
        "short_desc": "Time between issuing TCP keepalives.",
        "unit": "s",
        "vartype": "integer"
    },
    "tcp_keepalives_interval": {
        "boot_val": "0",
        "category": "Client Connection Defaults / Other Defaults",
        "context": "user",
        "enumvals": null,
        "extra_desc": "A value of 0 uses the system default.",
        "max_val": "2147483647",
        "min_val": "0",
        "name": "tcp_keepalives_interval",
        "short_desc": "Time between TCP keepalive retransmits.",
        "unit": "s",
        "vartype": "integer"
    },
    "temp_buffers": {
        "boot_val": "1024",
        "category": "Resource Usage / Memory",
        "context": "user",
        "enumvals": null,
        "extra_desc": null,
        "max_val": "1073741823",
        "min_val": "100",
        "name": "temp_buffers",
        "short_desc": "Sets the maximum number of temporary buffers used by each session.",
        "unit": "8kB",
        "vartype": "integer"
    },
    "temp_tablespaces": {
        "boot_val": "",
        "category": "Client Connection Defaults / Statement Behavior",
        "context": "user",
        "enumvals": null,
        "extra_desc": null,
        "max_val": null,
        "min_val": null,
        "name": "temp_tablespaces",
        "short_desc": "Sets the tablespace(s) to use for temporary tables and sort files.",
        "unit": null,
        "vartype": "string"
    },
    "timezone": {
        "boot_val": null,
        "category": "Client Connection Defaults / Locale and Formatting",
        "context": "user",
        "enumvals": null,
        "extra_desc": null,
        "max_val": null,
        "min_val": null,
        "name": "TimeZone",
        "short_desc": "Sets the time zone for displaying and interpreting time stamps.",
        "unit": null,
        "vartype": "string"
    },
    "timezone_abbreviations": {
        "boot_val": null,
        "category": "Client Connection Defaults / Locale and Formatting",
        "context": "user",
        "enumvals": null,
        "extra_desc": null,
        "max_val": null,
        "min_val": null,
        "name": "timezone_abbreviations",
        "short_desc": "Selects a file of time zone abbreviations.",
        "unit": null,
        "vartype": "string"
    },
    "trace_notify": {
        "boot_val": "off",
        "category": "Developer Options",
        "context": "user",
        "enumvals": null,
        "extra_desc": null,
        "max_val": null,
        "min_val": null,
        "name": "trace_notify",
        "short_desc": "Generates debugging output for LISTEN and NOTIFY.",
        "unit": null,
        "vartype": "bool"
    },
    "trace_recovery_messages": {
        "boot_val": "log",
        "category": "Developer Options",
        "context": "sighup",
        "enumvals": [
            "debug5",
            "debug4",
            "debug3",
            "debug2",
            "debug1",
            "log",
            "notice",
            "warning",
            "error"
        ],
        "extra_desc": "Each level includes all the levels that follow it. The later the level, the fewer messages are sent.",
        "max_val": null,
        "min_val": null,
        "name": "trace_recovery_messages",
        "short_desc": "Enables logging of recovery-related debugging information.",
        "unit": null,
        "vartype": "enum"
    },
    "trace_sort": {
        "boot_val": "off",
        "category": "Developer Options",
        "context": "user",
        "enumvals": null,
        "extra_desc": null,
        "max_val": null,
        "min_val": null,
        "name": "trace_sort",
        "short_desc": "Emit information about resource usage in sorting.",
        "unit": null,
        "vartype": "bool"
    },
    "track_activities": {
        "boot_val": "on",
        "category": "Statistics / Query and Index Statistics Collector",
        "context": "superuser",
        "enumvals": null,
        "extra_desc": "Enables the collection of information on the currently executing command of each session, along with the time at which that command began execution.",
        "max_val": null,
        "min_val": null,
        "name": "track_activities",
        "short_desc": "Collects information about executing commands.",
        "unit": null,
        "vartype": "bool"
    },
    "track_activity_query_size": {
        "boot_val": "1024",
        "category": "Resource Usage / Memory",
        "context": "postmaster",
        "enumvals": null,
        "extra_desc": null,
        "max_val": "102400",
        "min_val": "100",
        "name": "track_activity_query_size",
        "short_desc": "Sets the size reserved for pg_stat_activity.current_query, in bytes.",
        "unit": "",
        "vartype": "integer"
    },
    "track_counts": {
        "boot_val": "on",
        "category": "Statistics / Query and Index Statistics Collector",
        "context": "superuser",
        "enumvals": null,
        "extra_desc": null,
        "max_val": null,
        "min_val": null,
        "name": "track_counts",
        "short_desc": "Collects statistics on database activity.",
        "unit": null,
        "vartype": "bool"
    },
    "track_functions": {
        "boot_val": "none",
        "category": "Statistics / Query and Index Statistics Collector",
        "context": "superuser",
        "enumvals": [
            "none",
            "pl",
            "all"
        ],
        "extra_desc": null,
        "max_val": null,
        "min_val": null,
        "name": "track_functions",
        "short_desc": "Collects function-level statistics on database activity.",
        "unit": null,
        "vartype": "enum"
    },
    "transaction_deferrable": {
        "boot_val": "off",
        "category": "Client Connection Defaults / Statement Behavior",
        "context": "user",
        "enumvals": null,
        "extra_desc": null,
        "max_val": null,
        "min_val": null,
        "name": "transaction_deferrable",
        "short_desc": "Whether to defer a read-only serializable transaction until it can be executed with no possible serialization failures.",
        "unit": null,
        "vartype": "bool"
    },
    "transaction_isolation": {
        "boot_val": "default",
        "category": "Client Connection Defaults / Statement Behavior",
        "context": "user",
        "enumvals": null,
        "extra_desc": null,
        "max_val": null,
        "min_val": null,
        "name": "transaction_isolation",
        "short_desc": "Sets the current transaction's isolation level.",
        "unit": null,
        "vartype": "string"
    },
    "transaction_read_only": {
        "boot_val": "off",
        "category": "Client Connection Defaults / Statement Behavior",
        "context": "user",
        "enumvals": null,
        "extra_desc": null,
        "max_val": null,
        "min_val": null,
        "name": "transaction_read_only",
        "short_desc": "Sets the current transaction's read-only status.",
        "unit": null,
        "vartype": "bool"
    },
    "transform_null_equals": {
        "boot_val": "off",
        "category": "Version and Platform Compatibility / Other Platforms and Clients",
        "context": "user",
        "enumvals": null,
        "extra_desc": "When turned on, expressions of the form expr = NULL (or NULL = expr) are treated as expr IS NULL, that is, they return true if expr evaluates to the null value, and false otherwise. The correct behavior of expr = NULL is to always return null (unknown).",
        "max_val": null,
        "min_val": null,
        "name": "transform_null_equals",
        "short_desc": "Treats \"expr=NULL\" as \"expr IS NULL\".",
        "unit": null,
        "vartype": "bool"
    },
    "unix_socket_directory": {
        "boot_val": "",
        "category": "Connections and Authentication / Connection Settings",
        "context": "postmaster",
        "enumvals": null,
        "extra_desc": null,
        "max_val": null,
        "min_val": null,
        "name": "unix_socket_directory",
        "short_desc": "Sets the directory where the Unix-domain socket will be created.",
        "unit": null,
        "vartype": "string"
    },
    "unix_socket_group": {
        "boot_val": "",
        "category": "Connections and Authentication / Connection Settings",
        "context": "postmaster",
        "enumvals": null,
        "extra_desc": "The owning user of the socket is always the user that starts the server.",
        "max_val": null,
        "min_val": null,
        "name": "unix_socket_group",
        "short_desc": "Sets the owning group of the Unix-domain socket.",
        "unit": null,
        "vartype": "string"
    },
    "unix_socket_permissions": {
        "boot_val": "511",
        "category": "Connections and Authentication / Connection Settings",
        "context": "postmaster",
        "enumvals": null,
        "extra_desc": "Unix-domain sockets use the usual Unix file system permission set. The parameter value is expected to be a numeric mode specification in the form accepted by the chmod and umask system calls. (To use the customary octal format the number must start with a 0 (zero).)",
        "max_val": "511",
        "min_val": "0",
        "name": "unix_socket_permissions",
        "short_desc": "Sets the access permissions of the Unix-domain socket.",
        "unit": "",
        "vartype": "integer"
    },
    "update_process_title": {
        "boot_val": "on",
        "category": "Statistics / Query and Index Statistics Collector",
        "context": "superuser",
        "enumvals": null,
        "extra_desc": "Enables updating of the process title every time a new SQL command is received by the server.",
        "max_val": null,
        "min_val": null,
        "name": "update_process_title",
        "short_desc": "Updates the process title to show the active SQL command.",
        "unit": null,
        "vartype": "bool"
    },
    "vacuum_cost_delay": {
        "boot_val": "0",
        "category": "Resource Usage / Cost-Based Vacuum Delay",
        "context": "user",
        "enumvals": null,
        "extra_desc": null,
        "max_val": "100",
        "min_val": "0",
        "name": "vacuum_cost_delay",
        "short_desc": "Vacuum cost delay in milliseconds.",
        "unit": "ms",
        "vartype": "integer"
    },
    "vacuum_cost_limit": {
        "boot_val": "200",
        "category": "Resource Usage / Cost-Based Vacuum Delay",
        "context": "user",
        "enumvals": null,
        "extra_desc": null,
        "max_val": "10000",
        "min_val": "1",
        "name": "vacuum_cost_limit",
        "short_desc": "Vacuum cost amount available before napping.",
        "unit": "",
        "vartype": "integer"
    },
    "vacuum_cost_page_dirty": {
        "boot_val": "20",
        "category": "Resource Usage / Cost-Based Vacuum Delay",
        "context": "user",
        "enumvals": null,
        "extra_desc": null,
        "max_val": "10000",
        "min_val": "0",
        "name": "vacuum_cost_page_dirty",
        "short_desc": "Vacuum cost for a page dirtied by vacuum.",
        "unit": "",
        "vartype": "integer"
    },
    "vacuum_cost_page_hit": {
        "boot_val": "1",
        "category": "Resource Usage / Cost-Based Vacuum Delay",
        "context": "user",
        "enumvals": null,
        "extra_desc": null,
        "max_val": "10000",
        "min_val": "0",
        "name": "vacuum_cost_page_hit",
        "short_desc": "Vacuum cost for a page found in the buffer cache.",
        "unit": "",
        "vartype": "integer"
    },
    "vacuum_cost_page_miss": {
        "boot_val": "10",
        "category": "Resource Usage / Cost-Based Vacuum Delay",
        "context": "user",
        "enumvals": null,
        "extra_desc": null,
        "max_val": "10000",
        "min_val": "0",
        "name": "vacuum_cost_page_miss",
        "short_desc": "Vacuum cost for a page not found in the buffer cache.",
        "unit": "",
        "vartype": "integer"
    },
    "vacuum_defer_cleanup_age": {
        "boot_val": "0",
        "category": "Replication / Master Server",
        "context": "sighup",
        "enumvals": null,
        "extra_desc": null,
        "max_val": "1000000",
        "min_val": "0",
        "name": "vacuum_defer_cleanup_age",
        "short_desc": "Number of transactions by which VACUUM and HOT cleanup should be deferred, if any.",
        "unit": "",
        "vartype": "integer"
    },
    "vacuum_freeze_min_age": {
        "boot_val": "50000000",
        "category": "Client Connection Defaults / Statement Behavior",
        "context": "user",
        "enumvals": null,
        "extra_desc": null,
        "max_val": "1000000000",
        "min_val": "0",
        "name": "vacuum_freeze_min_age",
        "short_desc": "Minimum age at which VACUUM should freeze a table row.",
        "unit": "",
        "vartype": "integer"
    },
    "vacuum_freeze_table_age": {
        "boot_val": "150000000",
        "category": "Client Connection Defaults / Statement Behavior",
        "context": "user",
        "enumvals": null,
        "extra_desc": null,
        "max_val": "2000000000",
        "min_val": "0",
        "name": "vacuum_freeze_table_age",
        "short_desc": "Age at which VACUUM should scan whole table to freeze tuples.",
        "unit": "",
        "vartype": "integer"
    },
    "wal_buffers": {
        "boot_val": "-1",
        "category": "Write-Ahead Log / Settings",
        "context": "postmaster",
        "enumvals": null,
        "extra_desc": null,
        "max_val": "2147483647",
        "min_val": "-1",
        "name": "wal_buffers",
        "short_desc": "Sets the number of disk-page buffers in shared memory for WAL.",
        "unit": "8kB",
        "vartype": "integer"
    },
    "wal_keep_segments": {
        "boot_val": "0",
        "category": "Replication / Master Server",
        "context": "sighup",
        "enumvals": null,
        "extra_desc": null,
        "max_val": "2147483647",
        "min_val": "0",
        "name": "wal_keep_segments",
        "short_desc": "Sets the number of WAL files held for standby servers.",
        "unit": "",
        "vartype": "integer"
    },
    "wal_level": {
        "boot_val": "minimal",
        "category": "Write-Ahead Log / Settings",
        "context": "postmaster",
        "enumvals": [
            "minimal",
            "archive",
            "hot_standby"
        ],
        "extra_desc": null,
        "max_val": null,
        "min_val": null,
        "name": "wal_level",
        "short_desc": "Set the level of information written to the WAL.",
        "unit": null,
        "vartype": "enum"
    },
    "wal_receiver_status_interval": {
        "boot_val": "10",
        "category": "Replication / Standby Servers",
        "context": "sighup",
        "enumvals": null,
        "extra_desc": null,
        "max_val": "2147483",
        "min_val": "0",
        "name": "wal_receiver_status_interval",
        "short_desc": "Sets the maximum interval between WAL receiver status reports to the primary.",
        "unit": "s",
        "vartype": "integer"
    },
    "wal_sender_delay": {
        "boot_val": "1000",
        "category": "Replication / Master Server",
        "context": "sighup",
        "enumvals": null,
        "extra_desc": null,
        "max_val": "10000",
        "min_val": "1",
        "name": "wal_sender_delay",
        "short_desc": "WAL sender sleep time between WAL replications.",
        "unit": "ms",
        "vartype": "integer"
    },
    "wal_sync_method": {
        "boot_val": "fdatasync",
        "category": "Write-Ahead Log / Settings",
        "context": "sighup",
        "enumvals": [
            "fsync",
            "fdatasync",
            "open_sync",
            "open_datasync"
        ],
        "extra_desc": null,
        "max_val": null,
        "min_val": null,
        "name": "wal_sync_method",
        "short_desc": "Selects the method used for forcing WAL updates to disk.",
        "unit": null,
        "vartype": "enum"
    },
    "wal_writer_delay": {
        "boot_val": "200",
        "category": "Write-Ahead Log / Settings",
        "context": "sighup",
        "enumvals": null,
        "extra_desc": null,
        "max_val": "10000",
        "min_val": "1",
        "name": "wal_writer_delay",
        "short_desc": "WAL writer sleep time between WAL flushes.",
        "unit": "ms",
        "vartype": "integer"
    },
    "work_mem": {
        "boot_val": "1024",
        "category": "Resource Usage / Memory",
        "context": "user",
        "enumvals": null,
        "extra_desc": "This much memory can be used by each internal sort operation and hash table before switching to temporary disk files.",
        "max_val": "2147483647",
        "min_val": "64",
        "name": "work_mem",
        "short_desc": "Sets the maximum memory to be used for query workspaces.",
        "unit": "kB",
        "vartype": "integer"
    },
    "xmlbinary": {
        "boot_val": "base64",
        "category": "Client Connection Defaults / Statement Behavior",
        "context": "user",
        "enumvals": [
            "base64",
            "hex"
        ],
        "extra_desc": null,
        "max_val": null,
        "min_val": null,
        "name": "xmlbinary",
        "short_desc": "Sets how binary values are to be encoded in XML.",
        "unit": null,
        "vartype": "enum"
    },
    "xmloption": {
        "boot_val": "content",
        "category": "Client Connection Defaults / Statement Behavior",
        "context": "user",
        "enumvals": [
            "content",
            "document"
        ],
        "extra_desc": null,
        "max_val": null,
        "min_val": null,
        "name": "xmloption",
        "short_desc": "Sets whether XML data in implicit parsing and serialization operations is to be considered as documents or content fragments.",
        "unit": null,
        "vartype": "enum"
    },
    "zero_damaged_pages": {
        "boot_val": "off",
        "category": "Developer Options",
        "context": "superuser",
        "enumvals": null,
        "extra_desc": "Detection of a damaged page header normally causes PostgreSQL to report an error, aborting the current transaction. Setting zero_damaged_pages to true causes the system to instead report a warning, zero out the damaged page, and continue processing. This behavior will destroy data, namely all the rows on the damaged page.",
        "max_val": null,
        "min_val": null,
        "name": "zero_damaged_pages",
        "short_desc": "Continues processing past damaged page headers.",
        "unit": null,
        "vartype": "bool"
    }
}